{
	"batchId": "",
	"fulfillmentTimeStamp": "2018-01-25 10:37:40.002",
	"orders": [
		{
			"orderId": "",
			"statusCode": "00",
			"statusMessage": "Received",
			"shippingMethod": "FEDEX_2_DAY_EXPRESS",
			"shippingStatus": "COMPLETED",
			"subOrders": [
				{
					"subOrderId": "1",
					"statusCode": "00",
					"statusMessage": "Status - subOrder 1",
					"shippingStatus": "COMPLETED",
					"cards": [
						{
							"proxyNumber": "Test_PROXY_1234567890",
							"pin": "12345",
							"encryptedString": "Test encryption 2",
							"serialNumber": "CARD-SRL-001",
							"shippingStatus": "Active",
							"trackingNumber": "SHIP-87654321",
							"shippingTimeStamp": "2018-01-25 10:37:40.002"
						}
					]
				},
				{
					"subOrderId": "2",
					"statusCode": "00",
					"statusMessage": "Status - subOrder 2",
					"shippingStatus": "COMPLETED",
					"cards": [
						{
							"proxyNumber": "Test_PROXY_0987654321",
							"pin": "34743",
							"encryptedString": "Test encryption 2",
							"serialNumber": "CARD-SRL-002",
							"shippingStatus": "Active",
							"trackingNumber": "SHIP-87654321",
							"shippingTimeStamp": "2018-01-25 10:37:40.002"
						},
						{
							"proxyNumber": "Test_PROXY_4321356384",
							"pin": "34874",
							"encryptedString": "Test encryption 3",
							"serialNumber": "CARD-SRL-003",
							"shippingStatus": "Active",
							"trackingNumber": "SHIP-12375934539",
							"shippingTimeStamp": "2018-01-25 10:37:40.002"
						}
					]
				}
			]
		}
	]
}
